,segatasanshirou1122@yahoo.co.jp
,info@premium-h.jp
gf78d97fd7d7j@softbank.ne.jp,segatasanshirou1122@gmail.com
0sx2g8297882d0r@ezweb.ne.jp,ymirlink@gmail.com
,yokaoyunari@yahoo.co.jp
ymu3yjmqh4bciqvbw4kb@docomo.ne.jp,roots1500046@gmail.com
stylishrecords@yahoo.co.jp,
,afuwk@yahoo.co.jp
,baaaaaaaaq@gmail.com
,afuwkafuwk@gmail.com
