,k.andante1101@gmail.com
,jusfa56543@yahoo.co.jp
,watanabeshinsuke_sh@yahoo.co.jp
anharutoma.1010@i.softbank.jp,
0zf1c.13788494p@ezweb.ne.jp,
a825b87fd7yqrh@softbank.ne.jp,
,yk6639focus@yahoo.co.jp
,works0587@yahoo.co.jp
,ryoya26590629@yahoo.co.jp
,daiki19581223@gmail.com
,gubenyoushu237@gmail.com
,tracking214@gmail.com
,kachu0083@yahoo.co.jp
ky.ky.0922@i.softbank.jp,
,doro3@eay.jp
tanto.2004@docomo.ne.jp,
,alterrecordadjustments.com@gmail.com
,a.auk.s.love.2ooo@gmail.com
,mituki9800@gmail.com
shinkun.ss@docomo.ne.jp,
,taku0716@yahoo.ne.jp
,alllarge1@yahoo.co.jp
mnxd2b3xp@i.softbank.jp,
,yousuke541228@gmail.com
,slash1422@gmail.com
,taeyang_0407@yahoo.co.jp
r2n4y48mdf@i.softbank.jp,
,yukioyukio1234@yahoo.co.jp
,Hisayoshi1686@gmail.com
auai1978@ezweb.ne.jp,
ki10240812@softbank.ne.jp,
0bs08d2.7214b2m@ezweb.ne.jp,
12.hide.15@ezweb.ne.jp,
,satoshi3104851@gmail.com
,henomoheji@au.com
Kyotei-boy2_223@ezweb.ne.jp,
,sakurakai.1962@au.com
straw.hat.crew.112951@docomo.ne.jp,
,yoiyasanao@yahoo.co.jp
,t5m6k6a11@yahoo.co.jp
,kei6sk8@gmail.com
,masahi1173@gmail.com
,sakkamo515@yahoo.co.jp
,kimuni.returns@gmail.com
,ikesyu.com@gmail.com
,shigenariogata@gmail.com
,mamatato0507@gmail.com
t.m.ayu.mana.rai@docomo.ne.jp,
,y.yamamoto.0612@gmail.com
,kazusa.wahaha@gmail.com
,zushi19750226@au.com
dorapon.com@ezweb.ne.jp,
,noric0917@yahoo.co.jp
,miyabi_pierrot@yahoo.co.jp
,bigaloha4649@gmail.com
,y.y.orange.1040@gmail.com
,qggdb851@yahoo.co.jp
,takeshi_mabuchi@yahoo.co.jp
,0zg4685p389371p@au.com
,toragara.27@gmail.com
,yoopon.n.55220128@outlook.jp
,arashige19630@gmail.com
taka.riho.naoki@docomo.ne.jp,
,akiaki08170201ak@gmail.com
,yugo483ai1008@gmail.com
,dawn.brown@rndc-usa.com
,m.happy.ai@gmail.com
,kura04220318@gmail.com
,keiko.yosi70.2030@gmail.com
funafuji-852@docomo.ne.jp,
fyx2peue2@i.softbank.jp,
,goodlifesammy@gmail.com
imizu1998@i.softbank.jp,
,THAPASAKAR1919@gmail.com
,mkmk36294@gmail.com
,takuma8833@gmail.com
,daotianyiji@gmail.com
,ytx42225@gmail.com
ytanaka777@i.softbank.jp,
,otokogi1029@gmail.com
mata.ashita-pupu@i.softbank.jp,
,takaya.19870802@gmail.com
,yannkeyannkeyannke@gmail.com
st.leisure.knight@docomo.ne.jp,
,hirokinakata07@gmail.com
yosirou.2013@i.softbank.jp,
,ameoyaji@yahoo.co.jp
,keiichi.1.33@gmail.com
,inackobe923@gmail.com
change0582x@docomo.ne.jp,
,Krfgm756@gmail.com
masayan.43@ezweb.ne.jp,
seika.0968@ezweb.ne.jp,
,mahi4002@au.com
nba-cp3@docomo.ne.jp,
naojudo@ezweb.ne.jp,
,kamiatari7@gmail.com
,ayaka_ty7899@yahoo.co.jp
takutakutakuma.0913@docomo.ne.jp,
kakujun7@i.softbank.jp,
t..ta.tu.ya..s-411@ezweb.ne.jp,
pika_0731@ezweb.ne.jp,
,chankorozaemon@yahoo.co.jp
,bsbxlks@gmail.com
,chakomax1@gmail.com
,fkeiko1211@gmail.com
,dae256jp@yahoo.co.jp
m.y-3.31.b-.-d.yu-na@ezweb.ne.jp,
,r.urayama5713@gmail.com
,xxxtkmxxx5115.carp@gmail.com
,ayumi.wu.0803@gmail.com
,rkrk0128rk@gmail.com
mako7777@softbank.ne.jp,
,rsnracingnet@yahoo.co.jp
,k.umebachi@gmail.com
nnrr.11@i.softbank.jp,
,tomutomu08080@gmail.com
,hama22222@gmail.com
,shintetu0227@yahoo.co.jp
,Kekke.42.taniguchi@gmail.com
koryu-2331@r.vodafone.ne.jp,
masters410@softbank.ne.jp,
,ka57kai57@gmail.com
k.teruo20xx.colour@ezweb.ne.jp,
,kazunari.segawa.99@gmail.com
,yoshida11181001@yahoo.co.jp
,xgy9dgknhd51gei5hfua@gmail.com
,sam693919560207@gmail.com
,yasu8155@gmail.com
e-y.11.14.love@ezweb.ne.jp,
,yuuki011576@gmail.com
,peisanman@yahoo.co.jp
,f.classic.244@gmail.com
,g.1966s.s66@gmail.com
hisawo0825@i.softbank.jp,
,yubikitasuyuhki19@gmail.com
,swaafuku@yahoo.co.jp
,kinya.2628ACEL@gmail.com
,provenceange@gmail.com
,pigyu67@neko2.net
,genki.n.y.m1217@gmail.com
,mitsukinomeado@yahoo.com
,ucgunji2007@yahoo.co.jp
,moai1979_5@yahoo.co.jp
,ara4708@gmail.com
niku.2905@i.softbank.jp,
,go.diamond.1865@gmail.com
,dongguzhen@gmail.com
,deepimpact080810@gmail.com
,GOGO5155c@gmail.com
,Kurocibibe@yahoo.co.jp
,koujiw28@gmail.com
,hidekazu0511@sec-line.com
,akinohosao1@gmail.com
,chie.1118s@gmail.com
,yuto.i0312.2000@gmail.com
,scott201402@gmail.com
1s2.yuru.lbd24@ezweb.ne.jp,
,dgrysyk@yahoo.co.jp
t.nagayasu8692@i.softbank.jp,
0wr01r3w78f616j@ezweb.ne.jp,
,takeskebo8@yahoo.co.jp
,k_kunu5509@yahoo.co.jp
,reiachan622@SoftBank.ne.jp
bigup.pow.pow.pow@i.softbank.jp,
,kix.0429@gmail.com
,kouta.sano.45884711@gmail.com
,assza_mm@yahoo.co.jp
zerosen-770@softbank.ne.jp,
xkmseb5nm7@i.softbank.jp,
,ypk0630@yahoo.co.jp
,dai2iro.no.ki.8101@gmail.com
v252x-mr-.-mpsh-k@ezweb.ne.jp,
kokoro-shou@ezweb.ne.jp,
nao.otsuka@docomo.ne.jp,
,Yatusika@gmail.com
,wankorowankoro2@yahoo.co.jp
,turukei2007@yahoo.co.jp
,kakegoto21@gmail.com
kudo-koumuten.91011@ezweb.ne.jp,
papatannsinn1126@docomo.ne.jp,
,byam.boat@gmail.com
,g0615y1106@yahoo.co.jp
kokorozashi.takaku.8@ezweb.ne.jp,
,toshio19790611@gmail.com
,kazuki121548@gmail.com
,fx_neko@yahoo.co.jp
o8087399450@docomo.ne.jp,
n.6.a@i.softbank.jp,
,rika450206@gmail.com
haruto.tt-1022@ezweb.ne.jp,
,a.moody.person.from.tf@gmail.com
,ct21str@yahoo.co.jp
maru-mari-station@ezweb.ne.jp,
,sarahou784@yahoo.co.jp
hiromi.1101@ezweb.ne.jp,
ikskak134sf@i.softbank.jp,
,yamayama090909@gmail.com
hi8074922@ezweb.ne.jp,
,t.y.s.m.me@gmail.com
